{
  "tableName": "escolas_br_ativas_geo_2020",
  "segmentsConfig": {
    "timeColumnName": "ano",
    "timeType": "DAYS",
    "replication": "1",
    "schemaName": "escolas_br_ativas_geo_2020"
  },
  "tableIndexConfig": {
    "invertedIndexColumns": [],
    "loadMode": "MMAP"
  },
  "fieldConfigList": [],
  "tenants": {
    "broker": "DefaultTenant",
    "server": "DefaultTenant"
  },
  "tableType": "OFFLINE",
  "metadata": {}
}
